Deploy windows server
Go to server manager
Local server - disable ie
Install google
Install python anaconda
install vs code
Create a file and save as app.py 

print("welcome")

To open in cmd
ipython

IMP : 

Import
If
print


import random
dir(random) 

import random
dice1 = random.randint(1,6)
dice2 = random.randint(1,6)
print("Rolling the dice.....!!")
print(dice1,dice2)

in cmd
install pip3

variable declaration:
'''
Testing multiline 
''' 
a=10
b=10
print(a*b)

a=10
b=20
c=a+b
print(a*b)
fname = "satish"
lname = "kumar"
print(f'welcome to {fname} {lname} for building {c}') 

a=10
b=20
c=a+b
print(a*b)
fname = "satish"
lname = "kumar"
print(f'welcome to {fname} {lname} for building {c}') 
server1='satishk8s' 
print(server1+".xyz.com")

aws_regions = ["us-east-1","us-east-2","us-west-1","us-west-2"]
            #      0          1         2         3
for region in aws_regions:
    print(region)

    strings are important
    name = "satish"
    address = '''
    kommadi
    welcome'''
    print(name)
print(address)

Type, strings, it, float

In [22]: x = 10

In [23]: y = 20

In [24]: type(name)
Out[24]: str

In [25]: type(x)
Out[25]: int

In [26]: type(y)
Out[26]: int

In [27]: if type(x) == int:
    ...:     print("Its a hero")
    ...: else:
    ...:     print("Its not a her")
    ...:
Its a hero

In [28]: if type(x) = 10.1
  File "<ipython-input-28-063b57cf0ded>", line 1
    if type(x) = 10.1
               ^
SyntaxError: invalid syntax


In [29]: x=10.1

In [30]: if type(x) == int:
    ...:     print("Its a hero")
    ...: else:
    ...:     print("Its not a her")
    ...:
Its not a her

In [31]: x=10

In [32]: if type(x) == int:
    ...:     print("Its a hero")
    ...: else:
    ...:     print("Its not a her")
    ...:
Its a hero

In [33]: y=20.1

In [34]: if type(y) == int:
    ...:     print("Its a hero")
    ...: else:
    ...:     print("Its not a her")
    ...:
Its not a her

In [35]: y=20

In [36]: if type(y) == int:
    ...:     print("Its a hero")
    ...: else:
    ...:     print("Its not a her")

    
